смт. Кiровське: 700
с. Iзобiльне: 001
с. Абрикосiвка: 002
с. Айвазовське: 003
с. Бабенкове: 004
с. Вiдважне: 005
с. Вiдродження: 006
с. Василькове: 007
с. Видне: 008
с. Владиславiвка: 009
селище Вузлове: 010
с. Добролюбовка: 011
с. Долинне: 012
с. Жемчужина Криму: 013
с. Журавки: 014
с. Золоте Поле: 015
с. Ізюмівка: 016
с. Ключове: 018
с. Краснівка: 019
с. Красносільське: 020
с. Кринички: 021
с. Льговське: 022
с. Маківське: 023
с. Матросівка: 024
с. Новопокровка: 025
с. Новофедорівка: 026
с. Оріхівка: 027
с. Партизани: 028
с. Первомайське: 029
с. Привiтне: 030
с. Пруди: 031
с. Садове: 032
с. Синицине: 033
с. Софіївка: 034
с. Спасівка: 035
м. Старий Крим: 036
с. Токарєве: 037
с. Трудолюбiвка: 038
с. Тутівка: 039
с. Шубине: 040
с. Ярке Поле: 041
