с. Фонтани: 100
с. Харитонівка: 101
с. Чайкине: 102
с. Чайковське: 103
с. Чистеньке: 104
с. Шафранне: 105
с. Широке: 106
селище Шкільне: 107
селище Айкаван: 001
с. Андрусове: 002
с. Аркадіївка: 003
с. Білоглинка: 004
с. Вiнницьке: 005
с. Верхньокурганне: 006
с. Веселе: 007
с. Водне: 008
смт. Гвардiйське: 009
с. Грушеве: 010
селище Давидове: 011
с. Дем’янівка: 012
с. Денисiвка: 013
с. Дивне: 014
с. Дмитрове: 015
с. Добре: 016
с. Донське: 017
с. Дружне: 018
с. Дубки: 019
с. Живописне: 020
с. Журавлiвка: 021
с. Залiсся: 022
с. Зарічне: 023
с. Іванівка: 024
с. Каштанове: 025
с. Кизилiвка: 026
с. Кленiвка: 027
с. Клинівка: 028
с. Ключі: 029
с. Ключове: 030
с. Колодязне: 031
с. Кольчугине: 032
с. Комишинка: 033
с. Костянтинiвка: 034
с. Красна Зорька: 035
с. Красне: 036
с. Краснівка: 037
с. Краснолiсся: 038
с. Кубанське: 039
с. Купріне: 040
с. Курганне: 041
с. Лiкарственне: 042
с. Лiсносiлля: 043
с. Лазарівка: 044
с. Левадки: 045
с. Лозове: 046
с. Мазанка: 047
с. Маленьке: 048
смт. Миколаївка: 049
с. Мирне: 050
с. Міжгірне: 051
смт. Молодiжне: 052
с. Молочне: 053
с. Мраморне: 054
с. Нижньокурганне: 055
с. Новий Мир: 056
с. Новий Сад: 057
с. Новоандрiївка: 058
с. Новозбур'ївка: 059
с. Новомиколаївка: 060
с. Новоселiвка: 061
с. Обрив: 062
с. Олександрівка: 063
с. Опушки: 064
с. Пiонерське: 065
с. Партизанське: 066
с. Первомайське: 067
с. Перевальне: 068
с. Передове: 069
с. Перове: 070
с. Петрівка: 071
с. Петропавлівка: 072
с. Пожарське: 073
с. Привільне: 074
с. Пролітне: 075
с. Прудове: 076
с. Рiвнопiлля: 077
с. Родникове: 078
с. Роздолля: 079
с. Скворцове: 080
с. Совхозне: 081
с. Солов’ївка: 082
с. Сонячне: 083
с. Софіївка: 084
с. Спокійне: 085
с. Сторожеве: 086
с. Строганівка: 087
с. Сумське: 088
с. Сухоріччя: 089
с. Теплiвка: 090
с. Тепле: 091
с. Топольне: 092
с. Трипрудне: 093
с. Трудове: 094
с. Трудолюбове: 095
с. Українка: 096
с. Укромне: 097
с. Урожайне: 098
с. Ферсманове: 099
