м. Феодосiя: 800
с. Берегове: 001
с. Ближнє: 002
с. Виноградне: 003
смт. Коктебель: 004
с. Краснокам'янка: 005
смт. Курортне: 006
с. Наникове: 007
с. Насипне: 008
смт. Орджонiкiдзе: 009
с. Пiдгiрне: 010
с. Піонерське: 011
смт. Приморський: 012
с. Сонячне: 013
с. Степове: 014
смт. Щебетiвка: 016
с. Южне: 017
