с. Писарiвка: 036
с. Побережне: 037
с. Прибузьке: 038
с. Пултівці: 039
с. Рівець: 040
с. Славне: 041
с. Дашковецька: 042
с. Сокиринцi: 043
с. Сосонка: 044
с. Стадниця: 045
с. Степанiвка: 046
смт. Стрижавка: 047
с. Тютьки: 048
с. Тютюнники: 049
с. Широка Гребля: 053
с. Щітки: 054
с. Якушинцi: 055
с. Хижинцi: 066
с. Цвіжин: 067
с. Iванiвка: 001
с. Агрономiчне: 002
селище Березина: 003
с. Бохоники: 004
с. Вiнницькi Хутори: 005
с. Великi Крушлинцi: 006
смт. Вороновиця: 007
с. Гавришiвка: 008
с. Горбанiвка: 009
с. Гуменне: 010
смт. Десна: 011
с. Дорожнє: 012
с. Жабелівка: 013
с. Зарванці: 014
с. Ільківка: 015
с. Комарів: 016
с. Кордишівка: 017
с. Красне: 018
с. Ксаверiвка: 019
с. Лаврiвка: 020
с. Лисогора: 021
с. Лисянка: 022
с. Лука-Мелешкiвська: 023
с. Мiзяківськi Хутори: 024
с. Майдан: 025
с. Майдан-Чепельський: 026
с. Малi Крушлинцi: 027
с. Медвiдка: 028
с. Медвеже Вушко: 029
с. Михайлівка: 030
с. Некрасове: 031
с. Олександрiвка: 032
с. Оленiвка: 033
с. Парпурівці: 034
с. Переорки: 035
с. Слобода- Дашковецька : 068
