смт. Тростянець: 700
с. Iлляшiвка: 001
с. Бережанка: 002
с. Буди: 003
с. Велика Стратіївка: 004
с. Верхiвка: 005
селище Верхівське: 006
с. Глибочанське: 007
с. Глибочок: 008
с. Гордiївка: 009
с. Губник: 010
с. Демидiвка: 011
с. Демківка: 012
с. Демківське: 013
с. Довжок: 014
с. Дубина: 015
с. Дубівка: 016
с. Зелений Довжок: 017
с. Капустяни: 018
с. Китайгород: 019
с. Козинцi: 020
с. Красногiрка: 021
м. Ладижин: 022
с. Ладижинське: 023
с. Леткiвка: 024
с. Лукашiвка: 025
с. Мала Стратіївка: 026
с. Митківка: 027
с. Нова Ободiвка: 028
с. Ободiвка: 029
с. Олександрiвка: 030
с. Оляниця: 031
с. Підлісне: 032
с. Ружицьке: 033
с. Савинцi: 034
с. Северинівка: 035
с. Скибинцi: 036
с. Торканiвка: 037
с. Тростянчик: 039
с. Цибулiвка: 040
с. Четвертинiвка: 041
