смт. Iваничi: 001
с. Біличі: 002
с. Бортнів: 003
с. Будятичі: 004
с. Бужанка: 005
с. Бужковичі: 006
с. Верхнів: 007
с. Волиця-Морозовицька: 008
с. Грибовиця: 009
с. Грушів: 010
с. Гряди: 011
с. Долинка: 012
с. Древині: 013
с. Жашковичi: 014
с. Заболотцi: 015
с. Завидiв: 016
с. Заставне: 017
с. Іванів: 018
с. Іванівка: 019
с. Клопочин: 020
с. Колона: 021
с. Космівка: 022
с. Кречів: 023
с. Кропивщина: 024
с. Лежниця: 025
с. Литовеж: 026
с. Лугове: 027
с. Луковичi: 028
с. Менчичі: 029
с. Милятин: 030
с. Михалє: 031
с. Мишiв: 032
с. Млинище: 033
с. Мовники: 034
с. Морозовичi: 035
с. Низкиничі: 036
с. Нова Лішня: 037
с. Орищі: 038
с. Осмиловичі: 039
с. Павлiвка: 040
с. Переславичi: 041
с. Петрове: 042
с. Поромiв: 043
с. Радовичi: 044
с. Риковичi: 045
с. Романівка: 046
с. Русовичі: 047
с. Самоволя: 048
с. Соснина: 049
с. Стара Лiшня: 050
с. Старий Порицьк: 051
с. Старосілля: 052
с. Тишковичі: 053
с. Топилище: 054
с. Трубки: 055
с. Хренів: 056
с. Шахтарське: 057
с. Щенятин: 058
