с. Красiне: 038
с. Красна Балка: 039
с. Красне: 040
с. Кривбас: 041
с. Кудашівка: 042
с. Садове: 043
с. Лісопитомник: 044
с. Лозуватка: 045
с. Львів: 046
с. Маяк: 047
с. Мусiївка: 048
с. Надеждiвка: 049
с. Недайвода: 050
с. Нова Зоря: 051
с. Новий Кременчук: 052
с. Новий Мир: 053
с. Новий Шлях: 054
с. Нові Садки: 055
с. Новоганнівка: 056
с. Новогригорівка: 057
с. Новожитомир: 058
с. Новоіванівка: 059
с. Новолозуватка: 060
с. Новомайське: 061
с. Новомар’янівське: 062
с. Новопiлля: 063
с. Новопокровка: 064
с. Новоселівка: 065
с. Орджонiкiдзе: 066
с. Павлівка: 067
с. Пичугине: 068
с. Радгоспне: 069
смт. Радушне: 070
с. Раєво-Олександрівка: 071
с. Ранній Ранок: 072
с. Родiонiвка: 073
с. Романівка: 074
с. Рудничне: 075
с. Суворовка: 076
с. Тернівка: 077
с. Тернуватка: 078
с. Трудове: 079
смт. Христофорiвка: 080
с. Чабанове: 081
с. Чапаєвка: 082
с. Червона Поляна: 083
с. Червоне: 084
с. Червоні Поди: 085
с. Чкаловка: 086
с. Шевченкове: 087
с. Широке: 088
с. Анастасівка: 001
с. Андрусівка: 002
с. Базарове: 003
с. Братсько-Семенівка: 004
с. Бурлацьке: 005
с. Вiльне: 006
с. Валове: 007
с. Веселе: 008
с. Веселий Кут: 009
с. Високе Поле: 010
с. Вільний Посад: 011
с. Вільний Табір: 012
с. Водяне: 013
с. Гейкiвка: 014
с. Глеюватка: 015
с. Гомельське: 016
с. Грузька Григорівка: 017
с. Грузьке: 018
с. Дніпровка: 019
с. Дружба: 020
с. Запорожець: 021
с. Зелене Поле: 022
с. Зелений Гай: 023
с. Зелений Луг: 024
с. Златопіль: 025
с. Златоустiвка: 026
с. Золота Поляна: 027
с. Зоря: 028
с. Іванівка: 029
с. Івнівка: 030
с. Інгулець: 031
с. Кiровка: 032
с. Калiнiна: 033
с. Кам’яне Поле: 034
с. Кам’янське: 035
с. Кірове: 036
с. Коломiйцеве: 037
c. Калинівка: 089
