смт. Томакiвка: 700
с. Новокатьощине: 031
с. Новокиївка: 032
с. Новокраснопіль: 033
с. Новомиколаївка: 034
с. Новомихайлівка: 035
с. Новопавлівка: 036
с. Новоукраїнка: 037
с. Олександрівка: 038
с. Петрівка: 039
с. Преображенка: 040
с. Прогрес: 041
с. Садове: 042
с. Семенiвка: 043
с. Сергiївка: 044
с. Степанівка: 045
с. Стрюківка: 046
с. Тарасівка: 047
с. Топила: 049
с. Урожайне: 050
с. Чайки: 051
с. Червоний Яр: 052
с. Червоноукраїнка: 053
с. Чумаки: 054
с. Iллiнка: 001
с. Баркове: 002
с. Весела Федорівка: 003
с. Виводове: 004
с. Вищетарасiвка: 005
с. Вільне: 006
с. Володимирiвка: 007
с. Ганнівка: 008
с. Гарбузівка: 009
с. Грушеве: 010
с. Добра Надiя: 011
с. Долинське: 012
с. Жмерине: 013
с. Запорiзька Балка: 014
с. Запорізьке: 015
с. Зелений Гай: 016
с. Зелений Клин: 017
с. Зоря: 018
с. Кiрове: 019
с. Катьощине: 020
с. Кисличувате: 021
с. Китайгородка: 022
с. Краснопіль: 023
с. Маяк: 024
с. Мирове: 025
с. Миролюбівка: 026
с. Михайлiвка: 027
с. Настасiвка: 028
с. Новий Мир: 029
с. Новокам’янка: 030
