м. Шахтарськ: 700
с. Балочне: 001
с. Буруцького: 002
с. Велика Шишiвка: 003
с. Верхній Кут: 004
с. Весела Долина: 005
с. Веселе: 006
с. Вікторія: 007
с. Вінницьке: 008
с. Гірне: 009
с. Грабове: 010
с. Димитрова: 011
с. Дібрівка: 012
с. Дмитрiвка: 013
с. Дорофієнко: 014
с. Дубівка: 015
с. Дубове: 016
с. Зарічне: 017
с. Зарощенське: 018
с. Захарченко: 019
с. Зачатівка: 020
с. Золотарiвка: 021
с. Зрубне: 022
с. Кищенко: 023
с. Кожевня: 024
с. Комишатка: 025
смт. Контарне: 026
с. Красний Луч: 027
с. Круглик: 028
с. Кумшацьке: 029
с. Латишеве: 030
с. Лобанівка: 031
с. Малоорлiвка: 032
с. Мануйлiвка: 033
с. Маринівка: 034
с. Михайлівка: 035
с. Молодецьке: 036
смт. Московське: 037
с. Нiкiшине: 038
с. Новомиколаївка: 039
с. Новоорлівка: 040
с. Новопелагіївка: 041
с. Орлово-Iванiвка: 042
с. Передерієве: 043
с. Петрівське: 044
с. Петропавлiвка: 045
селище Польове: 046
с. Рівне: 047
с. Рідкодуб: 048
с. Розiвка: 049
с. Розсипне: 050
с. Садове: 051
с. Саурівка: 052
смт. Сердите: 053
с. Славне: 054
с. Степанiвка: 055
с. Степне: 056
смт. Стіжківське: 057
с. Стіжкове: 058
с. Стрюкове: 059
с. Тарани: 060
с. Тернове: 061
с. Тимофіївка: 062
с. Червона Зоря: 063
с. Чугуно-Крепинка: 064
с. Чумаки: 065
с. Шапошникове: 066
с. Шевченко: 068
