смт. Брусилiв: 700
с. Биків: 001
с. Болячів: 002
с. Високе: 004
с. Вільшка: 005
с. Водотиї: 006
с. Дивин: 007
с. Дібрівка: 008
с. Долинівка: 009
с. Западня: 010
с. Йосипівка: 011
с. Карабачин: 012
с. Ковганівка: 013
с. Костівці: 014
с. Краківщина: 015
с. Лазарiвка: 016
с. Мiстечко: 017
с. Малинівка: 018
с. Мар’янівка: 019
с. Морозівка: 020
с. Новi Озеряни: 021
с. Озера: 022
с. Осiвцi: 023
с. Пилипонка: 024
с. Покришів: 025
с. Приворiття: 026
с. Романiвка: 027
с. Скочище: 028
с. Скочище, станц.: 029
с. Соболiвка: 030
с. Соловiївка: 031
с. Ставище: 032
с. Старицьке: 033
с. Хом’янка: 034
с. Хомутець: 035
с. Яструбенька: 036
с. Яструбна: 037
