м. Баранiвка: 700
с. Адамівка: 001
с. Берестiвка: 003
с. Будисько: 004
с. Вiрля: 005
с. Вересня: 006
с. Вишнівка: 007
с. Володимирівка: 008
с. Глибочок: 009
с. Гриньки: 010
с. Деревищина: 011
с. Дібрiвка: 012
смт. Довбиш: 013
с. Дорогань: 014
с. Дубрівка: 015
с. Жари: 016
с. Жовте: 017
с. Забара: 018
с. Закриниччя: 019
с. Зелений Гай: 020
с. Зеремля: 021
с. Зірка: 022
с. Зрубок: 023
с. Зятинець: 024
с. Іванівка: 025
с. Йосипівка: 026
смт. Кам’яний Брiд: 027
с. Кашперiвка: 028
с. Климентіївка: 029
с. Красуля: 030
с. Лiсове: 031
с. Лісова Поляна: 032
с. Любарська Гута: 033
смт. Мар’янiвка: 034
с. Марківка: 035
с. Мирославль: 036
с. Млини: 037
с. Мокре: 038
с. Наталія: 039
с. Ожгів: 040
с. Озерянка: 041
с. Осичне: 042
с. Острожок: 043
с. П’ятирічка: 044
смт. Першотравенськ: 045
смт. Полянка: 046
с. Радулин: 047
с. Рогачiв: 048
с. Рудня: 049
с. Середня: 050
с. Ситисько: 051
с. Смолдирiв: 052
с. Стара Гута: 053
с. Стовпи: 054
с. Суємцi: 055
с. Табори: 056
с. Тартак: 057
с. Турова: 058
с. Хижiвка: 059
с. Червонодвірка: 060
с. Червонопрапорне: 061
с. Явне: 062
с. Ялишів: 063
