смт. Мiжгiр’я: 700
с. Iзки: 001
с. Береги: 002
с. Буковець: 003
с. Верхнiй Бистрий: 004
с. Верхній Студений: 005
с. Вучкове: 006
с. Голятин: 007
с. Горб: 008
с. Діл: 009
с. Заверхня Кичера: 010
с. Завийка: 011
с. Загорб: 012
с. Запередiлля: 013
с. Келечин: 014
с. Колочава: 015
с. Косів Верх: 016
с. Лiсковець: 017
с. Лозянський: 018
с. Лопушне: 019
с. Майдан: 021
с. Мерешор: 022
с. Негровець: 023
с. Нижнiй Студений: 024
с. Новоселиця: 025
с. Пилипець: 026
с. Підчумаль: 027
с. Подобовець: 028
с. Потік: 029
с. Прислiп: 030
с. Рiчка: 031
с. Рекіти: 032
с. Репинне: 033
с. Розтока: 034
с. Свобода: 035
с. Синевир: 036
с. Синевирська Поляна: 037
с. Сойми: 038
с. Сопки: 039
с. Стригальня: 040
с. Сухий: 041
с. Тітківці: 042
с. Торунь: 043
с. Тюшка: 044
