м. Свалява: 700
с. Березники: 001
с. Вовчий: 002
с. Ганьковиця: 003
с. Голубине: 004
с. Голубине Перше: 005
с. Драчино: 006
с. Дусино: 007
с. Керецьки: 008
с. Лопушанка: 009
с. Мала Мартинка: 010
с. Нелiпино: 011
с. Оленеве: 012
с. Павлове: 013
с. Пасiка: 014
с. Плав’я: 015
с. Плоске: 016
с. Плоский Потік: 017
с. Поляна: 018
с. Родникiвка: 019
с. Родникова Гута: 020
с. Росош: 021
с. Сасівка: 022
с. Солочин: 024
с. Стройне: 025
с. Сусково: 026
с. Тибава: 027
с. Уклин: 028
с. Черник: 029
с. Яківське: 030
