м. Кам’янка-Днiпровська: 700
с. Iванiвка: 001
с. Благовiщенка: 002
с. Велика Білозерка: 003
с. Велика Знам’янка: 004
с. Водяне: 005
с. Гуртове: 006
с. Гюнівка: 007
с. Днiпровка: 008
селище Заповiтне: 009
с. Зелена Балка: 010
с. Качкарівка: 012
с. Мічуріна: 013
с. Нововодяне: 014
с. Новоднiпровка: 015
с. Новоолексіївка: 016
с. Новопетрівка: 017
с. Новоукраїнка: 018
с. Петровське: 019
с. Подове: 020
с. Примірне: 021
с. Цвіткове: 022
с. Шлях Ілліча: 023
