с. Володимирівське: 011
с. Григорiвка: 012
с. Днiпрельстан: 013
с. Дніпрові Хвилі: 014
с. Долинівка: 015
с. Долинське: 016
с. Запорожець: 017
с. Івангород: 018
селище Івано-Ганнівка: 019
с. Канiвське: 020
селище Канцерівка: 021
с. Кірове: 022
с. Крилівське: 023
смт. Кушугум: 024
с. Лежине: 025
с. Лемешинське: 026
с. Лисогiрка: 027
с. Лукашеве: 028
с. Малишівка: 029
смт. Малокатеринівка: 030
с. Мар’ївка: 031
с. Миколай-Поле: 032
с. Морозівка: 033
с. Надія: 034
с. Наталiвка: 035
с. Нижня Хортиця: 036
с. Нове Запорiжжя: 037
с. Нововознесенка: 038
с. Новодніпровка: 039
с. Новоолександрівка: 040
с. Новооленівка: 041
с. Новопетрiвка: 042
с. Новоселище: 043
с. Новосергіївка: 044
с. Новослобідка: 045
с. Новостепнянське: 046
с. Петрівське: 047
с. Петропiль: 048
с. Петропавлівка: 049
с. Привітне: 050
с. Придніпровське: 051
с. Радянське: 052
селище Річне: 053
с. Розумiвка: 054
селище Ростуще: 055
с. Ручаївка: 056
с. Світанок: 057
с. Смоляне: 058
селище Сонячне: 059
с. Степне: 060
с. Уділенське: 061
с. Урицьке: 062
с. Федорівка: 063
с. Червоний Яр: 064
с. Червонодніпровка: 065
с. Черепівське: 066
с. Шевченківське: 067
с. Широке: 068
с. Юльївка: 069
с. Яворницьке: 070
с. Августинiвка: 001
с. Бiленьке: 002
с. Бабурка: 003
смт. Балабине: 004
с. Біленьке Перше: 005
селище Вiдрадне: 006
с. Веселе: 007
с. Веселянка: 008
селище Високогiрне: 009
с. Водяне: 010
с. Хортиця: 071
