смт. Більмак: 700
с. Бiлоцеркiвка: 001
с. Бiльманка: 002
с. Березівка: 003
с. Благовiщенка: 004
с. Верхньодрагунське: 005
с. Вершина: 006
с. Вершина Друга: 007
с. Веселоіванівка: 008
с. Гоголівка: 009
с. Грузьке: 010
с. Гусарка: 011
с. Десятиріччя Жовтня: 012
с. Діброва: 013
с. Дубове: 014
с. Зелений Гай: 015
с. Зразкове: 016
смт. Комиш-Зоря: 017
с. Ланцеве: 019
с. Ленінське: 020
с. Мар’янiвка: 021
с. Мирське: 022
с. Новокам’янка: 023
с. Новоукраїнка: 024
с. Олексiївка: 025
с. Очеретувате: 026
с. Пробудження: 027
с. Руденка: 028
с. Самийлівка: 029
с. Світле: 030
с. Смiле: 031
с. Смирнове: 032
с. Тернове: 033
с. Титове: 034
с. Трудове: 035
с. Труженка: 036
с. Червоне Озеро: 037
с. Червоноселiвка: 038
с. Черешневе: 039
с. Шевченкiвське: 040
