смт. Приазовське: 700
с. Прудентове: 044
с. Розівка: 045
с. Степанiвка Перша: 046
с. Степанівка Друга: 047
с. Строганівка: 048
с. Таврійське: 049
с. Федорiвка: 050
с. Чкалове: 051
с. Шевченка: 052
с. Бабанівка: 001
с. Бесідівка: 002
с. Білорічанське: 003
с. Богданiвка: 004
с. Ботієве: 005
с. Вишневе: 006
с. Вікторівка: 007
с. Волна: 008
с. Володимирiвка: 009
с. Воскресенка: 010
с. Гамівка: 011
с. Ганнівка: 012
с. Ганно-Опанлинка: 013
с. Георгiївка: 014
с. Гірсівка: 015
с. Громівка: 016
с. Дівнинське: 017
с. Дмитрiвка: 018
с. Добрівка: 019
с. Дунаївка: 020
селище Домузли: 021
с. Іванівка: 022
с. Ігрівка: 023
с. Калинівка: 024
с. Макiвка: 025
с. Мар’янівка: 026
с. Миколаївка: 027
с. Миронівка: 028
с. Надеждине: 029
с. Нечкине: 030
смт. Нововасилiвка: 031
с. Новоіванівка: 032
с. Новокостянтинівка: 033
с. Новомиколаївка: 034
с. Новоолександрівка: 035
с. Новопокровка: 036
с. Новоспаське: 037
с. Олександрiвка: 038
с. Оріхівка: 039
с. Петрівка: 040
с. Південне: 041
с. Приморський Посад: 043
