м. Рогатин: 700
с. Бабухiв: 001
с. Беньківці: 002
с. Березівка: 003
с. Бойки: 004
смт. Букачiвцi: 005
с. Букачівська Слобода: 006
с. Васючин: 007
с. Вербилівці: 008
с. Верхня Липиця: 009
с. Вигода: 010
с. Виспа: 011
с. Витань: 012
с. Вишнiв: 013
с. Вільхова: 014
с. Воронiв: 015
с. Воскресинці: 016
с. Гоноратівка: 017
с. Городиська: 018
с. Григорiв: 019
с. Григорівська Слобода: 020
с. Дiброва: 021
с. Данільче: 022
с. Дегова: 023
с. Дички: 024
с. Добринiв: 025
с. Долиняни: 026
с. Жовчів: 027
с. Журiв: 028
с. Журавеньки: 029
с. Загір’я: 030
с. Заланів: 031
с. Заливки: 032
с. Залужжя: 033
с. Зеленів: 034
с. Зруб: 035
с. Йосипівка: 036
с. Кам’янка: 037
с. Кліщівна: 038
с. Княгиничi: 039
с. Козарi: 040
с. Колоколин: 041
с. Конюшки: 042
с. Корчунок: 043
с. Кривня: 044
с. Кутці: 045
с. Липівка: 046
с. Лісова: 047
с. Лопушня: 048
с. Луковець-Вишнiвський: 049
с. Луковець-Журівський: 050
с. Луковище: 051
с. Лучинцi: 052
с. Любша: 053
с. Малий Заланів: 054
с. Малинівка: 055
с. Межигаї: 056
с. Мельна: 057
с. Нижня Липиця: 058
с. Обельниця: 059
с. Пiдгороддя: 060
с. Пiдкамiнь: 061
с. Пiдмихайлiвцi: 062
с. Перенівка: 063
с. Пилипівці: 064
с. Підбір’я: 065
с. Підвиння: 066
с. Погребівка: 067
с. Помонята: 068
с. Посвірж: 069
с. Потік: 070
с. Приозерне: 071
с. Пукiв: 072
с. Путятинцi: 073
с. Руда: 075
с. Сарники: 076
с. Свiтанок: 077
с. Стефанівка: 078
с. Стратин: 079
с. Уїзд: 080
с. Фрага: 081
с. Чагрiв: 082
с. Чернiв: 083
с. Черче: 084
с. Чесники: 085
с. Юнашкiв: 086
с. Явче: 087
с. Яглуш: 088
