м. Тараща: 700
с. Антонівка: 001
с. Бовкун: 002
с. Буда: 003
с. Велика Березянка: 004
с. Велика Вовнянка: 005
с. Веселий Кут: 006
с. Володимирiвка: 007
с. Дубiвка: 008
с. Кiвшувата: 009
с. Кирдани: 010
с. Кислiвка: 011
с. Косякiвка: 012
с. Красюки: 013
с. Крива: 014
с. Крутi Горби: 015
с. Лiсовичi: 016
с. Лук’янiвка: 017
с. Лука: 018
с. Маковецьке: 019
с. Мала Березянка: 020
с. Мала Вовнянка: 021
с. Малоберезанське: 022
с. Петрiвське: 023
с. Плоске: 024
с. Потоки: 025
с. Рiжки: 026
с. Салиха: 027
с. Северинiвка: 028
с. Станишiвка: 029
с. Степок: 030
с. Улашівка: 032
с. Чапаєвка: 033
с. Червоні Яри: 034
с. Чернин: 035
