смт. Бiлокуракине: 700
с. Бунчукiвка: 002
с. Гладкове: 003
с. Грицаївка: 004
с. Дем’янiвка: 005
с. Заводянка: 006
с. Заїківка: 007
с. Калинівське: 008
с. Калинова Балка: 009
с. Картамишеве: 010
с. Климівка: 011
с. Коноплянівка: 012
с. Кочине-Розпасіївка: 013
с. Куплювате: 014
с. Курячiвка: 015
с. Лизине: 016
с. Лозне: 017
смт. Лозно-Олександрiвка: 018
с. Луб’янка: 019
с. Ляшківка: 020
с. Маньківка: 021
с. Миколаївка: 022
с. Нещеретове: 023
с. Новоандріївка: 024
с. Новопокровка: 025
с. Новочервоне: 026
с. Нянчине: 027
с. Олексiївка: 028
с. Олександропiль: 029
с. Олексапіль: 030
с. Осикове: 031
с. Павлiвка: 032
с. Панькiвка: 033
с. Первомайське: 034
с. Петрівка: 035
с. Пластунівка: 036
с. Плахо-Петрiвка: 037
с. Попiвка: 038
с. Попасне: 039
с. Приходьківка: 040
с. Просторе: 041
с. Романiвка: 042
с. Рудове: 043
с. Самсонівка: 044
с. Світленьке: 045
с. Солiдарне: 046
с. Стативчине: 047
с. Тимошине: 048
с. Хоменкове Друге: 049
с. Хоменкове Перше: 050
с. Цілуйкове: 051
с. Чабанове: 052
с. Червоноармiйське: 053
с. Шапарiвка: 054
с. Шарiвка: 055
с. Шовкунівка: 056
