м. Перемишляни: 700
с. Iванiвка: 001
м. Бiбрка: 002
с. Бiле: 003
с. Бачів: 004
с. Білка: 005
с. Благодатівка: 006
с. Болотня: 007
с. Борщiв: 008
с. Брикун: 009
с. Брюховичі: 010
с. Великi Глiбовичi: 011
с. Виписки: 012
с. Вишнівчик: 013
с. Вільховець: 014
с. Вілявче: 015
с. Вовків: 016
с. Волове: 017
с. Волощина: 018
с. Ганачівка: 019
с. Глібовичі: 020
с. Гончарів: 021
с. Грабник: 022
с. Гуральня: 023
с. Добряничі: 024
с. Дунаїв: 025
с. Дусанiв: 026
с. Задубина: 027
с. Заставки-Яблунів: 028
с. Затемне: 029
с. Камінна: 030
с. Кимир: 031
с. Копань: 032
с. Кореличi: 033
с. Коросне: 034
с. Костенiв: 035
с. Кузубатиця: 036
с. Курний: 037
с. Кучерівка: 038
с. Лагодiв: 039
с. Ладанці: 040
с. Лани: 041
с. Липiвцi: 042
с. Лоні: 043
с. Лонівка: 044
с. Лопушна: 045
с. Любешка: 046
с. Малий Полюхів: 047
с. Малі Ланки: 048
с. Мерещiв: 049
с. Мивсева: 050
с. Мостище: 051
с. Неділиська: 052
с. Новосілки: 053
с. Осталовичi: 054
с. Пiдгородище: 055
с. Під’ярків: 057
с. Підвисоке: 058
с. Підмонастир: 059
с. Підсмереки: 060
с. Плеників: 061
с. Плетеничі: 062
с. Плоска: 063
с. Пнятин: 064
с. Подусiв: 065
с. Подусільна: 066
с. Прибинь: 067
с. Рівна: 068
с. Розсохи: 069
с. Романів: 070
с. Рубче: 071
с. Свiрж: 072
с. Селиська: 073
с. Сивороги: 074
с. Сірники: 075
с. Смереківка: 076
с. Станимир: 077
с. Стоки: 078
с. Стрілки: 079
с. Суходiл: 080
с. Тернівка: 081
с. Тучне: 082
с. Унів: 083
с. Утіховичі: 084
с. Ушковичi: 085
с. Хомина: 086
с. Чемеринцi: 087
с. Чуперносів: 088
с. Шпильчина: 089
