м. Сколе: 700
смт. Верхнє Синьовидне: 001
с. Верхня Рожанка: 002
с. Верхнячка: 003
с. Волосянка: 004
с. Головецько: 005
с. Грабовець: 006
с. Гребенiв: 007
с. Довжки: 008
с. Долинівка: 009
с. Дубина: 010
с. Жупани: 011
с. Завадка: 012
с. Задiльське: 013
с. Зимівки: 014
с. Кальне: 015
с. Кам’янка: 016
с. Климець: 017
с. Козьова: 018
с. Коростiв: 019
с. Корчин: 020
с. Криве: 021
с. Крушельниця: 022
с. Лавочне: 023
с. Либохора: 024
с. Межиброди: 025
с. Мита: 026
с. Нагірне: 027
с. Нижнє Синьовидне: 028
с. Нижня Рожанка: 029
с. Опорець: 030
с. Орiв: 031
с. Орява: 032
с. Орявчик: 033
с. Пiдгородцi: 034
с. Плав’я: 035
с. Побук: 036
с. Погар: 037
с. Пшонець: 038
с. Риків: 039
с. Росохач: 040
смт. Славське: 042
с. Сможе: 043
с. Сопіт: 044
с. Сухий Потік: 045
с. Тернавка: 046
с. Тисовець: 047
с. Тишівниця: 048
с. Труханiв: 049
с. Тухля: 050
с. Тухолька: 051
с. Урич: 052
с. Хащованя: 053
с. Хітар: 054
с. Ялинкувате: 055
с. Ямельниця: 056
