смт. Березанка: 700
с. Анатолiвка: 001
с. Андрiєво-Зорине: 002
с. Андріївка: 003
с. Бессарабка: 005
с. Богданівка: 006
с. Василівка: 007
с. Вікторівка: 008
с. Ганнівка: 009
с. Глибоке: 010
с. Данилiвка: 011
с. Дмитрiвка: 012
с. Елеваторне: 013
с. Єлизаветівка: 014
с. Журівка: 015
с. Кiмiвка: 016
с. Калабатине: 017
с. Коблеве: 018
с. Коблеве, сезонне: 019
с. Комiсарiвка: 020
с. Красне: 021
с. Краснопiлля: 022
с. Крутоярка: 023
с. Ленінка: 024
с. Лимани: 025
с. Лиманське: 026
с. Лугове: 027
с. Люблине: 028
с. Малахове: 029
с. Марківка: 030
с. Матiясове: 031
с. Михайлівка: 032
с. Морське: 033
с. Новопетрівка: 034
с. Новоподілля: 035
с. Новоселівка: 036
с. Новофедорiвка: 037
с. Олександрівка: 038
с. Попільне: 039
с. Прогресівка: 040
с. Рибакiвка: 041
с. Суходіл: 042
с. Ташине: 043
с. Тронка: 044
с. Тузли: 045
с. Федорівка: 046
с. Чапаєвка: 047
с. Червона Українка: 048
с. Червоний Поділ: 049
с. Шмідтівка: 050
с. Яблуня: 051
