смт. Березнегувате: 700
с. Бiла Криниця: 001
с. Березнегувате, вокз.: 003
с. Василівка: 004
с. Велике Артакове: 005
с. Веселе: 006
с. Веселий Кут: 007
с. Висунськ: 008
с. Вітрове: 009
с. Добре: 010
с. Зелений Гай: 011
с. Кавказ: 012
с. Калачеве: 013
с. Калинівка: 014
с. Калуга: 015
с. Лепетиха: 016
с. Любомирiвка: 017
с. Малiївка: 018
с. Маломихайлівське: 019
с. Мурахiвка: 020
с. Нововолодимирiвка: 021
с. Новогригорівка: 022
с. Новоолександрівка: 023
с. Новоочакiв: 024
с. Новопетрівка: 025
с. Новоросійське: 026
с. Новосевастополь: 027
с. Новосергіївка: 028
с. Новоукраїнка: 029
с. Одрадне: 030
с. Озерiвка: 031
с. Петрівське: 032
с. Петропавлівка: 033
с. Пришиб: 034
с. Романiвка: 035
с. Семенівка: 036
с. Сергiївка: 037
с. Соколівка: 038
с. Тернівка: 039
с. Тетянiвка: 040
с. Федорівка: 041
с. Червоний Став: 042
с. Червоний Яр: 043
с. Червонопілля: 044
с. Яковлівка: 045
