смт. Єланець: 700
с. Богодарівка: 001
с. Братолюбiвка: 002
с. Бугорок: 003
с. Великосербулiвка: 004
с. Велідарівка: 005
с. Веселий Поділ: 006
с. Водяне: 007
с. Водяно-Лорине: 008
с. Возсіятське: 009
с. Гражданка: 010
с. Григорівка: 011
с. Дружелюбівка: 012
с. Іванівка: 014
с. Калинiвка: 015
с. Кам’янка: 016
с. Ковалівка: 017
с. Крутоярка: 018
с. Куйбишевка: 019
с. Малодворянка: 020
с. Маложенівка: 021
с. Малосербулівка: 022
с. Малоукраїнка: 023
с. Михайлівка: 024
с. Нововасилiвка: 025
с. Нововолодимирiвка: 026
с. Новомиколаївка: 027
с. Новоолександрiвка: 028
с. Новоявленка: 029
с. Ольгопiль: 030
с. Півні: 031
с. Покровка: 032
с. Приют: 033
с. Семенівка: 034
с. Уральське: 035
с. Федоро-Михайлівка: 036
с. Ясногородка: 037
