м. Снiгурiвка: 700
с. Iвано-Кепине: 001
с. Афанасiївка: 002
с. Баратiвка: 003
с. Безіменне: 004
с. Богородицьке: 005
с. Бурханівка: 006
с. Вавилове: 007
с. Василiвка: 008
с. Васильки: 009
с. Великопілля: 010
с. Виноградне: 011
с. Галаганiвка: 012
с. Горохiвське: 013
с. Гречанівка: 014
с. Гуляй Городок: 015
с. Євгенiвка: 016
с. Єлизаветівка: 017
с. Знам’янка: 018
с. Киселiвка: 019
с. Кобзарцi: 020
с. Любомирівка: 021
с. Куйбишеве: 022
с. Лиманці: 023
с. Любимівка: 024
с. Любине: 025
с. Максимiвка: 026
с. Михайлівка: 027
с. Новий Шлях: 028
с. Нововасилiвка: 029
с. Новокиївка: 030
с. Новокондакове: 031
с. Новопавлівське: 032
с. Новопетрiвка: 033
с. Новософiївка: 034
с. Новотимофiївка: 035
с. Олександрiвка: 036
с. Павлiвка: 037
с. Павло-Мар’янiвка: 038
с. Першотравневе: 039
с. Петропавлівське: 040
с. Покровське: 041
с. Поляна: 042
с. Радгоспне: 043
с. Романово-Булгакове: 044
с. Садове: 045
с. Свiтла Дача: 046
с. Тамарине: 048
с. Тернові Поди: 049
с. Трудолюбiвка: 050
с. Центральне: 051
с. Червона Долина: 052
с. Червона Зiрка: 053
с. Червоний Промінь: 054
с. Широке: 055
с. Шмідтове: 056
с. Юр(ївка: 057
с. Ясна Поляна: 058
с. Красне Знам'я: 059
