м. Бiляївка: 700
с. Повстанське: 034
с. Протопопівка: 035
с. Секретарiвка: 036
с. Стара Еметівка: 037
с. Троїцьке: 038
с. Усатове: 039
с. Усатове-станція: 040
смт. Хлiбодарське: 041
с. Холодна Балка: 042
с. Чапаєве: 043
с. Червона Гiрка: 044
с. Червона Зірка: 045
селище Червоний Розселенець: 046
с. Черевичне: 047
с. Чоботарівка: 048
с. Широка Балка: 049
с. Яськи: 050
с. Великий Дальник: 010
с. Вигода: 011
с. Граденицi: 012
с. Дачне: 013
с. Доброжанове: 014
селище Дослідне: 015
селище Жовтнева Революція: 016
с. Кагарлик: 017
с. Кам’янка: 018
с. Ковалівка: 019
с. Котовка: 020
с. Курган: 021
с. Ленінське Перше: 022
с. Майори: 023
с. Маринiвка: 024
с. Маяки: 025
с. Мирне: 026
с. Михайлівка: 027
селище Набережне: 028
с. Нерубайське: 029
с. Нова Еметівка: 030
селище Нова Ковалівка: 031
с. Палiївка: 032
с. Петрiвське: 033
с. Iллiнка: 001
с. Августiвка: 002
с. Алтестове: 003
с. Берегове: 005
с. Березань: 006
с. Важне: 007
с. Василiвка: 008
с. Велика Балка: 009
