смт. Любашiвка: 700
с. Iванiвка: 001
с. Агафiївка: 002
с. Агеївка: 003
с. Адамівка: 004
с. Антонiвка: 005
с. Арчепитівка: 006
с. Бобрик Другий: 007
с. Бобрик Перший: 008
с. Бобрицьке: 009
с. Бокове: 010
с. Василівка: 011
с. Велика Василівка: 012
с. Велике Бокове: 013
с. Володимирівка: 014
с. Гвоздавка Друга: 015
с. Гвоздавка Перша: 016
с. Демидiвка: 017
с. Дмитрівка: 018
с. Дмитрівське: 019
с. Жовтневе: 020
с. Заплази: 021
смт. Зеленогiрське: 022
с. Іванівка: 023
с. Катеринiвка Перша: 024
с. Козачий Яр: 025
с. Комарiвка: 026
с. Корніївка: 027
с. Кричунове: 028
с. Мала Василiвка: 030
с. Михайлівка: 031
с. Нововоздвиженка: 032
с. Новокарбiвка: 033
с. Новоолександрівка: 034
с. Новоселiвка: 035
с. Новотроїцьке: 036
с. Олександрiвка: 037
с. Петрiвка: 038
с. Пилипівка: 039
с. Погреби: 040
с. Познанка Друга: 041
с. Познанка Перша: 042
с. Покровка: 043
с. Сергіївка: 044
с. Сирівське: 045
с. Солтанiвка: 046
с. Степанівка: 047
с. Троїцьке: 048
с. Чабанівка: 049
с. Чайківка: 050
с. Чайківське: 051
с. Червоний Яр: 052
с. Шайтанка: 053
с. Шкарбинка: 054
с. Шликареве: 055
с. Янишiвка: 056
с. Ясенове Друге: 057
с. Ясенове Перше: 058
