м. Кодима: 700
с. Iвашкiв: 001
с. Баштанкiв: 002
с. Будеї: 003
с. Грабове: 004
с. Загнiткiв: 005
с. Кирилівка: 006
с. Котовцi: 008
с. Крутi: 009
с. Лабушне: 010
с. Лисогiрка: 011
с. Мала Слобiдка: 012
с. Олексiївка: 013
с. Олександрівка: 014
с. Петрiвка: 015
с. Пирiжна: 016
с. Писарiвка: 017
с. Правда: 018
с. Семенівка: 019
с. Серби: 020
смт. Слобiдка: 021
с. Смолянка: 022
с. Стримба: 023
с. Тимкове: 024
с. Федорівка: 025
с. Шершенцi: 026
