смт. Саврань: 700
с. Слюсареве: 020
с. Струтинка: 021
с. Байбузiвка: 001
с. Бакша: 002
с. Білоусівка: 003
с. Вiльшанка: 004
с. Гетьманiвка: 005
с. Глибочок: 006
с. Дубинове: 007
с. Дубки: 008
с. Йосипiвка: 009
с. Кам’яне: 010
с. Капустянка: 011
с. Квітка: 012
селище Ковбасова Поляна: 013
с. Концеба: 014
с. Недiлкове: 015
с. Осички: 016
с. Острівка: 017
с. Полянецьке: 018
