смт. Фрунзiвка: 700
с. Андрусова: 001
с. Бiрносове: 002
с. Балашове: 003
с. Богданове Перше: 004
с. Василiвка: 005
с. Весела Балка: 006
с. Войничеве: 007
с. Володимирівка: 008
с. Гедеримове Перше: 009
с. Гірківка: 010
с. Глибокояр: 011
с. Давидівка: 012
с. Дементівка: 013
с. Дружелюбівка: 014
с. Єлизаветівка: 015
с. Жигайлове: 016
с. Загір’я: 017
смт. Затишшя: 018
с. Іванівка: 019
с. Йосипiвка: 020
с. Карабанове: 021
с. Кошарка: 022
с. Краснопiль: 023
с. Кримпулька: 024
с. Ленiне: 025
с. Майорське: 026
с. Мала Топорівка: 027
с. Малорошове: 028
с. Мар’янiвка: 029
с. Нова Григорівка: 030
с. Нова Шибка: 031
с. Новозаріцьке: 032
с. Новомиколаївка: 033
с. Новопавлiвка: 034
с. Оленівка: 035
с. Онилове: 036
с. Павлiвка: 037
с. Парканівка: 038
с. Первомайське: 039
с. Перехрестове: 040
с. Перехрестове Перше: 041
с. Перше Травня: 042
с. Петрівка: 043
с. Росiянiвка: 044
с. Савчинське: 045
с. Самiйлiвка: 046
с. Скинешори: 047
с. Стоянове: 048
с. Унтилівка: 049
с. Федосіївка: 050
с. Червона Стінка: 052
