м. Лубни: 700
с. Iскiвцi: 001
с. Бiївцi: 002
с. Барвінщина: 003
с. Березiвка: 004
с. Березоточа: 005
с. Богодарівка: 006
с. Броварки: 007
с. В’язiвок: 008
с. Величківка: 009
с. Вили: 010
с. Висачки: 011
с. Вищий Булатець: 012
с. Вільшанка: 013
с. Вовча Долина: 014
с. Вовчик: 015
с. Войниха: 016
с. Гiнцi: 017
с. Горобії: 018
с. Гребище: 019
с. Губське: 020
с. Давиденки: 021
с. Духове: 022
с. Єнківці: 023
с. Ждани: 024
с. Жовтневе: 025
с. Засулля: 026
с. Іванівка: 027
с. Калайдинцi: 028
с. Карпилiвка: 029
с. Клепачі: 030
с. Комунар: 031
с. Кононівка: 032
с. Кревелівка: 033
с. Крем’янка: 034
с. Крутий Берег: 035
с. Кузубівка: 036
с. Куп'єваха: 037
с. Литвяки: 038
с. Луки: 040
с. Лушники: 041
с. Макарівщина: 042
с. Малий В’язівок: 043
с. Матяшівка: 044
с. Мацкiвцi: 045
с. Мацкова Лучка: 046
с. Мгар: 047
с. Миколаївка: 048
с. Михнiвцi: 049
с. Назарівка: 050
с. Нижній Булатець: 051
с. Новаки: 052
с. Новоорiхiвка: 053
с. Окiп: 054
с. Олександрівка: 055
с. Орiхiвка: 056
с. Остапiвка: 057
с. П’ятигірці: 058
с. Пiски: 059
с. Пишне: 060
с. Пулинці: 061
с. Ремівка: 062
с. Ромодан: 063
с. Свічківка: 064
с. Селюки: 065
с. Снiтин: 066
с. Снітине: 067
с. Солониця: 068
с. Стадня: 069
с. Степурі: 070
с. Суха Солониця: 071
с. Тарандинцi: 072
с. Тернiвщина: 073
с. Терни: 074
с. Тишки: 075
с. Тотчине: 076
с. Халепці: 077
с. Хитцi: 078
с. Хитці: 079
с. Хорошки: 080
с. Червоні Пологи: 081
с. Чернече: 082
с. Чуднівці: 083
с. Шеки: 084
с. Шершнiвка: 085
с. Шинківщина: 086
