смт. Шишаки: 700
с. Чернишiвка: 071
с. Чорнобаї: 072
с. Шарлаївка: 073
с. Шафранівка: 074
с. Швадрони: 075
с. Яковенщина-Горова: 077
с. Яреськи: 078
с. Горішнє: 015
с. Горова Яковенщина: 016
с. Гребеняки: 017
с. Григорівщина: 018
с. Дем’янки: 019
с. Дмитрівка: 020
с. Жоржiвка: 021
с. Зелене: 022
с. Зозулі: 023
с. Кирпотівка: 024
с. Киселиха: 025
с. Климове: 026
с. Ковалiвка: 027
с. Ковердина Балка: 028
с. Колодяжне: 029
с. Коляди: 030
с. Криворучки: 031
с. Куйбишеве: 032
с. Бабичі: 001
с. Баранiвка: 002
с. Білаші: 003
с. Бухуни: 004
с. Велика Бузова: 005
с. Великий Перевiз: 006
с. Величкове: 007
с. Вертелецьке: 008
с. Вишневе: 009
с. Воронянщина: 010
с. Воскобiйники: 011
с. Гнатенки: 012
с. Гоголеве: 013
с. Гончарі: 014
с. Легейди: 033
с. Лещани: 034
с. Луці: 035
с. Мала Бузова: 036
с. Малий Перевіз: 037
с. Маликівщина: 038
с. Маначинівка: 039
с. Маслівці: 040
с. Михайлики: 041
с. Мірошники: 042
с. Науменки: 043
с. Нижні Яреськи: 044
с. Низова Яковенщина: 045
с. Носи: 046
с. Павлівка: 047
с. Палагеївка: 048
с. Переводчикове: 049
с. Першотравневе: 050
с. Порскалівка: 051
с. Принцеве: 052
с. Пришиб: 053
с. Раївка: 054
с. Римиги: 055
с. Романки: 056
с. Сагайдак: 057
с. Салимівщина: 058
с. Самари: 059
с. Соснівка: 060
с. Сулими: 061
с. Тищенки: 062
с. Товсте: 063
с. Федунка: 064
с. Харенки: 065
с. Хвальки: 066
с. Хвощове: 067
с. Ходосиха: 068
с. Христівка: 069
с. Цьови: 070
