смт. Володимирець: 700
с. Iванчi: 001
с. Антонiвка: 002
с. Бiле: 003
с. Бiльська Воля: 004
с. Бабка: 005
с. Балаховичi: 006
с. Березина: 007
с. Берестiвка: 008
с. Бишляк: 009
с. Великi Телковичi: 010
с. Великi Цепцевичi: 011
с. Великий Жолудськ: 012
с. Велихів: 013
с. Веретено: 014
с. Воронки: 016
с. Городець: 017
с. Городок: 018
с. Діброва: 019
с. Довговоля: 020
с. Дубівка: 021
с. Жовкинi: 022
с. Журавлине: 023
с. Заболоття: 024
с. Зелене: 025
с. Зелениця: 026
с. Кiдри: 027
с. Каноничi: 028
с. Кошмаки: 029
с. Красносiлля: 030
с. Кримне: 031
с. Кругле: 032
с. Липне: 033
с. Лозки: 034
с. Луко: 035
с. Любахи: 036
с. Малий Жолудськ: 037
с. Малі Телковичі: 038
с. Маюничі: 039
с. Мостище: 040
с. Мульчицi: 041
с. Нетреба: 042
с. Новаки: 043
с. Новосiлки: 044
с. Озеро: 045
с. Озерці: 046
с. Острів: 047
с. Острівці: 048
с. Полицi: 049
с. Половлi: 050
с. Радижеве: 051
смт. Рафалiвка: 052
с. Ромейки: 053
с. Рудка: 054
с. Сварині: 055
с. Собiщицi: 056
с. Сопачiв: 057
с. Сошники: 058
с. Стара Рафалiвка: 059
с. Степангород: 060
с. Суховоля: 061
с. Уріччя: 062
с. Хиночi: 063
с. Чаква: 064
с. Чудля: 065
с. Чучеве: 066
с. Щоків: 067
