м. Буринь: 700
с. Атаманське: 001
с. Бiжiвка: 002
с. Болотівка: 003
с. Бондарі: 004
с. Бошiвка: 005
с. Бурики: 006
с. Верхня Сагарiвка: 008
с. Вишневий Яр: 009
с. Вікторинівка: 010
с. Вознесенка: 011
с. Воскресенка: 012
с. Гатка: 013
с. Гвинтове: 014
с. Голуби: 015
с. Дич: 016
с. Дмитрівка: 017
с. Дякiвка: 018
с. Єрчиха: 019
с. Жовтневе: 020
с. Жукiвка: 021
с. Ігорівка: 022
с. Карпенкове: 023
с. Клепали: 024
с. Коновалове: 025
с. Коренівка: 026
с. Кошарське: 027
с. Кубракове: 028
с. Леонтіївка: 029
с. Миколаївка: 030
с. Михайлiвка: 031
с. Молодівка: 032
с. Нечаївка: 033
с. Нижня Сагарівка: 034
с. Нова Олександрівка: 035
с. Новий Мир: 036
с. Нотаріусівка: 037
с. Олександрiвка: 038
с. Пiски: 039
с. Пасьовини: 040
с. Петухівка: 041
с. Романчукове: 042
с. Сапушине: 043
с. Слобода: 044
с. Снiжки: 045
с. Сорока: 046
с. Сорочинське: 047
с. Степанiвка: 048
с. Суховерхiвка: 049
с. Темне: 050
с. Тимофіївка: 051
с. Успенка: 052
с. Харченки: 053
с. Хустянка: 054
с. Чалищівка: 055
с. Червона Слобода: 056
с. Черепiвка: 057
с. Чернеча Слобода: 058
с. Чумакове: 059
с. Шевченкове: 060
с. Шкуматове: 061
с. Шпокалка: 062
с. Ярове: 063
