с. Пристайлове: 100
с. Протопопівщина: 101
с. Радчуки: 102
с. Радянське: 103
с. Ревки: 104
с. Руда: 105
с. Рябушки: 106
с. Савенки: 107
с. Селище: 108
с. Семенівка: 109
с. Ситники: 110
с. Сіренки: 111
с. Сіробабине: 112
с. Софіївка: 113
с. Старонове: 114
с. Стеблянки: 115
с. Степне: 116
с. Ступки: 117
с. Супруни: 118
с. Токарi: 119
с. Топчії: 120
с. Тригуби: 121
с. Федірки: 122
с. Філонівщина: 123
с. Харченки: 124
с. Хилькове: 125
с. Червлене: 126
с. Червоне: 127
с. Черемухівка: 128
с. Чернецьке: 129
с. Чернишки: 130
с. Чижове: 131
с. Шевченкове: 132
с. Штепiвка: 133
с. Шумили: 134
с. Щетини: 135
с. Яроші: 136
м. Лебедин: 700
с. Байрак: 001
с. Барабашівка: 002
с. Басівщина: 003
с. Березів Яр: 004
с. Бишкiнь: 005
с. Боброве: 006
с. Бойки: 007
с. Боровенька: 008
с. Будилка: 009
с. Букати: 010
с. Бурівка: 011
с. Валки: 012
с. Василiвка: 013
с. Великий Вистороп: 014
с. Великі Луки: 015
с. Верхнє: 016
с. Вершина: 017
с. Вільшанка: 018
с. Влізьки: 019
с. Ворожба: 020
с. Галушки: 021
с. Гамаліївка: 022
с. Гарбарі: 023
с. Гарбузiвка: 024
с. Гірки: 025
с. Голубiвка: 026
с. Гостробури: 027
с. Грабці: 028
с. Грамине: 029
с. Гринцеве: 030
с. Грицини: 031
с. Грунь: 032
с. Грушеве: 033
с. Гудимівка: 034
с. Гутницьке: 035
с. Даценківка: 036
с. Деркачі: 037
с. Дігтярі: 038
с. Дмитрівка: 039
с. Дремлюги: 040
с. Дружне: 041
с. Жовтневе: 042
с. Забуги: 043
с. Залізничне: 044
с. Зелений Гай: 045
с. Калюжне: 046
с. Кам’яне: 047
с. Караван: 048
с. Катеринiвка: 049
с. Кердилівщина: 050
с. Ключинівка: 051
с. Коломийці: 052
с. Комісарівка: 053
с. Корчани: 054
с. Костів: 055
с. Кринички: 056
с. Круте: 057
с. Куданівка: 058
с. Кулики: 059
с. Куличка: 060
с. Курган: 061
с. Курилівка: 062
с. Ленінське: 064
с. Лифине: 065
с. Лободівщина: 066
с. Лозово-Грушеве: 067
с. Ляшки: 068
с. Майдаки: 069
с. Малий Вистороп: 070
с. Маньки: 071
с. Мартинці: 072
с. Марусенкове: 073
с. Межирiч: 074
с. Мирне: 075
с. Миронівщина: 076
с. Михайлiвка: 077
с. Московський Бобрик: 078
с. Новопетрівка: 079
с. Новоселівка: 080
с. Новосільське: 081
с. Овдянське: 082
с. Олександрівка: 083
с. Олексенкове: 084
с. Олексіївка: 085
с. Пiдопригори: 086
с. Павленкове: 087
с. Падалки: 088
с. Панченки: 089
с. Парфили: 090
с. Патріотівка: 091
с. Пашкине: 092
с. Переліски: 093
с. Першотравневе: 094
с. Північне: 095
с. Підсулля: 096
с. Пісківка: 097
с. Плетньове: 098
с. Помірки: 099
