с. Попiвщина: 100
с. Попівка: 101
с. Посад: 102
с. Правдюки: 103
с. Пустовiйтiвка: 104
с. Пшінчине: 105
с. Рiпки: 106
с. Рогинцi: 107
с. Розумакове: 108
с. Савойське: 110
с. Садове: 111
с. Салогубiвка: 112
с. Саханське: 113
с. Світівщина: 114
с. Сененкове: 115
с. Скрипалі: 116
с. Смiле: 117
с. Степурине: 118
с. Сулими: 119
с. Сурмачівка: 120
с. Тарасівка: 121
с. Федотове: 122
с. Хмелiв: 123
с. Холодне: 124
с. Холодник: 125
с. Хоминцi: 126
с. Хрещатик: 127
с. Чеберяки: 128
с. Червоне: 129
с. Червоногвардійське: 130
с. Чижикове: 131
с. Чисте: 132
с. Шилівське: 133
с. Шумське: 134
с. Якимовичі: 135
с. Яковенкове: 136
с. Ярмолинцi: 137
с. Ярошiвка: 138
м. Ромни: 700
с. Вощилиха: 027
с. Гаї: 028
с. Галенкове: 029
с. Галка: 030
с. Герасимiвка: 031
с. Глинськ: 032
с. Голенка: 033
с. Горове: 034
с. Авраменкове: 001
с. Анастасiвка: 002
с. Андрiївка: 003
с. Андрiяшiвка: 004
с. Артюхiвка: 005
с. Бiловод: 006
с. Басiвка: 007
с. Бацмани: 008
с. Бессарабка: 009
с. Біловодське: 010
с. Бобрик: 011
с. Бойкове: 012
с. Борозенка: 013
с. Братське: 014
с. Бурбине: 015
с. В’юнне: 016
с. Василiвка: 017
с. Ведмеже: 018
с. Великi Бубни: 019
с. Великi Будки: 020
с. Велика Бутівка: 021
с. Велике: 022
с. Веселий Степ: 023
с. Вовкiвцi: 024
с. Володимирівка: 025
с. Волошнiвка: 026
с. Грабине: 035
с. Гришине: 036
с. Губське: 037
с. Гудими: 038
с. Дiброва: 039
с. Дзеркалька: 040
с. Довгополiвка: 041
с. Дубина: 042
с. Житне: 043
с. Загребелля: 044
с. Заїзд: 045
с. Заклимок: 046
с. Закубанка: 047
с. Залатиха: 048
с. Залуцьке: 049
с. Заріччя: 050
с. Заруддя: 051
с. Заруднівка: 052
с. Зеленівщина: 053
с. Зінове: 054
с. Зюзюки: 055
с. Калинiвка: 056
с. Касянове: 057
с. Кашпури: 058
с. Колісникове: 059
с. Коновали: 060
с. Кононенкове: 061
с. Коржi: 062
с. Королiвщина: 063
с. Косарівщина: 064
с. Кропивинці: 065
с. Кузьменкове: 066
с. Левондівка: 067
с. Левченки: 068
с. Лісківщина: 069
с. Локня: 070
с. Лукашове: 071
с. Луценкове: 072
с. Лучки: 073
с. Малi Бубни: 074
с. Мале: 075
с. Малярівщина: 076
с. Марківське: 077
с. Матлахове: 078
с. Мельники: 079
с. Миколаївка: 080
с. Миколаївське: 081
с. Мокiївка: 082
с. Москалiвка: 083
с. Москівщина: 084
с. Ненадієвка: 085
с. Нова Гребля: 086
с. Новицьке: 087
с. Новокалинівка: 088
с. Новопетрівка: 089
с. Овлашi: 090
с. Олексіївка: 091
с. Перекопiвка: 092
с. Перехрестiвка: 093
с. Першотравневе: 094
с. Піски: 095
с. Плавинище: 096
с. Плужникове: 097
с. Погожа Криниця: 098
с. Погреби: 099
