смт. Золочiв: 700
с. Маяк: 036
с. Мерло: 037
с. Миронівка: 038
с. Морозова Долина: 039
с. Одноробiвка: 040
с. Одноробiвка, вокз.: 041
с. Окіп: 042
с. Олександрiвка: 043
с. Орішанка: 044
с. Перемога: 045
с. Перовське: 046
с. Першотравневе: 047
с. Петрiвка: 048
с. Писарiвка: 049
с. Постольне: 050
с. Пролетар: 051
с. Iвашки: 001
с. Андріївка: 002
с. Баранiвка: 003
с. Басове: 004
с. Березівка: 005
с. Борохи: 006
с. Бугаї Другі: 007
с. Велика Рогозянка: 008
с. Відродженівське: 009
с. Вікнине: 010
с. Вільшанське: 011
с. Головашівка: 012
с. Гресі: 013
с. Гур’їв: 014
с. Гур’їв Козачок: 015
с. Гуринiвка: 016
с. Довжик: 017
с. Дуванка: 018
с. Жовтневе: 019
с. Завадське: 020
с. Зіньківське: 021
с. Зрубанка: 023
с. Карасівка: 024
с. Ковалі: 025
с. Ковтуни: 026
с. Костянтинівка: 027
с. Леміщине: 028
с. Литвинове: 029
с. Лютівка: 030
с. Макариха: 031
с. Макарове: 032
с. Мала Рогозянка: 033
с. Малижине: 034
с. Мартинівка: 035
с. Рідний Край: 052
с. Рогозянка, станція: 053
с. Розсохувате: 054
с. Рясне: 055
с. Свiтличне: 056
с. Сковородинiвка: 057
с. Скорики: 058
с. Сніги, станція: 059
с. Соснівка: 060
с. Сотницький Козачок: 061
с. Стогнії: 062
с. Тимофіївка: 063
с. Турове: 064
с. Уди: 065
с. Фартушне: 066
с. Феськи: 067
с. Цапiвка: 068
с. Цилюрики: 069
с. Чепелі: 070
с. Червона Зоря: 071
с. Чорноглазівка: 072
с. Широкий Яр: 073
с. Яблучне: 074
