м. Олешки: 700
с. Абрикосiвка: 001
смт. Брилiвка: 002
с. Великi Копанi: 003
с. Виноградове: 004
с. Добросiлля: 005
с. Дружне: 006
с. Клини: 007
с. Козачi Лагерi: 008
с. Костогризове: 009
с. Кринки: 010
с. Ленінка: 011
с. Марченка: 012
с. Мирне: 013
смт. Нова Маячка: 014
с. Пiдстепне: 015
с. Підлісне: 016
с. Піщанівка: 017
с. Поди: 018
с. Подо-Калинiвка: 019
с. Привiтне: 020
с. Привільне: 021
с. Пролетарка: 022
с. Раденськ: 023
с. Саги: 024
с. Солонцi: 025
с. Стара Маячка: 026
с. Тарасiвка: 027
с. Цюрупинськ, селище: 029
с. Щасливе: 030
с. Ювiлейне: 031
