м. Деражня: 700
с. Адамівка: 001
с. Березове: 002
с. Богданiвцi: 003
с. Божикiвцi: 004
с. Бомкове: 005
с. Буцневе: 006
с. Вівсяники: 007
смт. Вовковинцi: 008
с. Волоське: 009
с. Галузинці: 010
с. Гатна: 011
с. Городище: 012
с. Гришки: 013
с. Гута: 014
с. Загiнцi: 016
с. Згар: 017
с. Згарок: 018
с. Зянькiвцi: 019
с. Кайтанівка: 020
с. Кальна: 021
с. Клопотiвцi: 022
с. Копачiвка: 023
с. Коржiвцi: 024
с. Коричинці: 025
с. Красносілка: 026
с. Літки: 027
смт. Лозове: 028
с. Мазники: 029
с. Майдан-Чернелевецький: 030
с. Макарове: 031
с. Маникiвцi: 032
с. Марківка: 033
с. Нижнє: 034
с. Новий Майдан: 035
с. Новосiлка: 036
с. Новостроївка: 037
с. Осикове: 038
с. Пилипи: 039
с. Підлісне: 040
с. Подолянське: 041
с. Радiвцi: 042
с. Радянське: 043
с. Розсохи: 044
с. Садове: 045
с. Сіноводи: 046
с. Слобідка: 047
с. Слобідка-Шелехiвська: 048
с. Стара Гута: 049
с. Старий Майдан: 050
с. Степівка: 051
с. Стреків: 052
с. Теперівка: 053
с. Черешенька: 054
с. Чернелівці: 055
с. Шарки: 056
с. Шелехове: 057
с. Шиїнці: 058
с. Шпичинці: 059
с. Яблунiвка: 060
с. Явтухи: 061
с. Яськiвцi: 062
