с. Білижинці: 007
с. Більчин: 008
с. Більчинка: 009
с. Борисiв: 010
с. Васьківці: 011
с. Великi Пузирки: 012
с. Велика Радогощ: 013
с. Влашанівка: 014
с. Григорівка: 015
с. Даньківці: 016
с. Двiрець: 017
с. Дертка: 018
с. Дібровка: 019
с. Добрин: 020
с. Долоччя: 021
с. Забрід: 022
с. Завадинці: 023
с. Закриничне: 024
с. Закружці: 025
с. Заріччя: 026
с. Зубарі: 027
с. Іванівка: 028
с. Калетинці: 029
с. Калинівка: 030
с. Кам’янка: 031
с. Кіндратки: 032
с. Клубiвка: 033
с. Комини: 034
с. Криволука: 035
с. Кропивна: 036
с. Кунiв: 037
с. Лiщани: 038
с. Лісна: 039
с. Лопушне: 040
с. Лютарка: 041
с. М’якоти: 042
с. Мала Медведівка: 043
м. Iзяслав: 001
с. Антонівка: 002
с. Бiлогородка: 003
с. Бiлотин: 004
с. Бейзими: 005
с. Білеве: 006
с. Мала Радогощ: 044
с. Мирне: 045
с. Мислятин: 046
с. Михайлівка: 047
с. Михля: 048
с. Михнiв: 049
с. Мокрець: 050
с. Нечаївка: 051
с. Нова Гутиська: 052
с. Нове Село: 053
с. Новосілка: 054
с. Новостав: 055
с. Пильки: 056
с. Півнева Гора: 057
с. Підлісці: 058
с. Плужне: 059
с. Покощівка: 060
с. Полiське: 061
с. Припутенка: 062
с. Припутні: 063
с. Путринці: 064
с. Рiпки: 065
с. Радошiвка: 066
с. Ревуха: 067
с. Рокитне: 068
с. Сахнiвцi: 069
с. Свириди: 070
с. Сивір: 071
с. Сморшки: 072
с. Сохужинці: 073
с. Сошне: 074
с. Стара Гутиська: 075
с. Сторониче: 076
с. Тарасівка: 077
с. Телiжинцi: 078
с. Тернавка: 079
с. Тишевичi: 080
с. Топірчики: 081
с. Топори: 082
с. Улянівка: 083
с. Хотень: 084
с. Хотень Другий: 085
с. Христiвка: 086
с. Чепці: 087
с. Чижівка: 088
с. Шевченка: 089
с. Шекеринцi: 090
с. Щурівці: 091
с. Щурівчики: 092
