м. Старокостянтинiв: 700
с. Iлляшiвка: 001
с. Андронівка: 002
с. Баглаї: 003
с. Берегелі: 004
с. Березне: 005
с. Бовкуни: 006
с. Бутiвцi: 007
с. Великi Мацевичi: 008
с. Великий Чернятин: 009
с. Вербівочка: 010
с. Вербородинцi: 011
с. Верхняки: 012
с. Веселе: 013
с. Веснянка: 014
с. Вишнопiль: 015
с. Волиця-Керекешина: 016
с. Воронкiвцi: 017
с. Гнатки: 018
с. Грибенинка: 019
с. Григорiвка: 020
с. Громiвка: 021
с. Губин: 022
с. Губча: 023
с. Демківці: 024
с. Деркачi: 025
с. Драчi: 026
с. Дубина: 027
с. Ємці: 028
с. Жабче: 029
с. Загірне: 030
с. Залісся: 031
с. Зеленці: 032
с. Іршики: 033
с. Йосипівка: 034
с. Калинівка: 035
с. Кантівка: 036
с. Капустин: 037
с. Караїмівка: 038
с. Киселі: 039
с. Коржiвка: 040
с. Костянець: 041
с. Красносілка: 042
с. Криниця: 043
с. Круглики: 044
с. Круча: 045
с. Кучівка: 046
с. Ладиги: 047
с. Лажева: 048
с. Ланок: 049
с. Левківка: 050
с. Ленінське: 051
с. Лисинці: 052
с. Малий Вишнопіль: 053
с. Малий Чернятин: 054
с. Малишівка: 055
с. Малі Мацевичі: 056
с. Мальки: 057
с. Мартинiвка: 058
с. Махаринці: 059
с. Миролюбне: 060
с. Морозівка: 061
с. Нападівка: 062
с. Немиринцi: 063
с. Немирівка: 064
с. Новоселиця: 065
с. Огiївцi: 066
с. Оріхівка: 067
с. Партинці: 068
с. Пашкiвцi: 069
с. Пеньки: 070
с. Першотравневе: 071
с. Писарівка: 072
с. Пихтії: 073
с. Підгірне: 074
с. Половинники: 075
с. Попівці: 076
с. Прохорівка: 077
с. Радкiвцi: 078
с. Райки: 079
с. Раштівка: 080
с. Решнiвка: 081
с. Самчики: 082
с. Самчинцi: 083
с. Сахнiвцi: 084
с. Северини: 085
с. Семиреньки: 086
с. Сербинівка: 087
с. Сковородки: 088
с. Старий Остропіль: 089
с. Степок: 091
с. Стецьки: 092
с. Хижники: 093
с. Хутори: 094
с. Червона Семенівка: 095
с. Чорна: 096
с. Шевченка: 097
с. Яремичі: 098
