смт. Катеринопiль: 700
с. Бродецьке: 001
с. Вiкнине: 002
с. Вербовець: 003
с. Гончариха: 004
с. Грушківка: 005
с. Гуляйполе: 006
с. Єлизаветка: 007
смт. Єрки: 008
с. Залізнячка: 009
с. Кайтанiвка: 010
с. Киселiвка: 012
с. Кобиляки: 013
с. Лисича Балка: 014
с. Луківка: 015
с. Любисток: 016
с. Мокра Калигiрка: 017
с. Надвисся: 018
с. Новоселиця: 019
селище Новоукраїнка: 020
с. Пальчик: 021
с. Петракiвка: 022
с. Потоки: 023
с. Радчиха: 024
с. Розсохуватка: 025
с. Ромейкове: 026
с. Стійкове: 027
с. Ступичне: 028
с. Суха Калигiрка: 029
селище Червоний Брід: 030
с. Шостакове: 031
с. Ямпiль: 032
с. Ярошiвка: 033
