м. Золотоноша: 700
с. Антипiвка: 001
с. Бакаївка: 002
с. Богдани: 003
с. Богуславець: 004
с. Броварки: 005
с. Бубнiвська Слобiдка: 006
с. Вiльхи: 007
с. Вознесенське: 008
с. Гельмязiв: 009
с. Гладкiвщина: 010
селище Гладківщина, селище: 011
селище Гришківка: 012
с. Деньги: 013
селище Дібрівка: 014
с. Дмитрiвка: 015
с. Домантове: 016
с. Драбiвцi: 017
с. Згар: 018
с. Зорiвка: 020
с. Каленики: 021
селище Канівщина: 022
с. Кедина Гора: 023
с. Коврай: 024
с. Коврай Другий: 025
с. Коврайськi Хутори: 026
с. Ковтуни: 027
селище Ковтунівка: 028
с. Комарівка: 029
с. Коробiвка: 030
с. Кривоносiвка: 031
с. Кропивна: 032
с. Крупське: 033
с. Лукашiвка: 034
с. Львівка: 035
селище Малинівщина: 036
с. Маліївка: 037
с. Маркізівка: 038
с. Матвіївка: 039
с. Мелесiвка: 040
с. Мицалівка: 041
с. Нова Гребля: 042
с. Нова Дмитрiвка: 043
с. Пiдставки: 044
с. Пiщане: 045
селище Петровського: 046
с. Плешканi: 047
с. Подiльське: 048
с. Привiтне: 049
селище Роздол: 050
с. Сеньківці: 051
с. Синьоокiвка: 052
с. Скорикiвка: 053
селище Снігурівка: 054
с. Софiївка: 055
с. Хвильово-Сорочин: 056
селище Холодне: 057
с. Хрущівка: 058
с. Чапаєвка: 059
с. Чернещина: 060
с. Шабельники: 061
селище Шкодунівка: 062
с. Щербинівка: 063
селище Ярки: 064
