м. Новоселиця: 700
с. Балкiвцi: 001
с. Берестя: 002
с. Бояни: 003
с. Боянівка: 004
с. Буда: 005
с. Ванчикiвцi: 006
с. Ванчинець: 007
с. Гай: 008
с. Динiвцi: 009
с. Довжок: 010
с. Драниця: 011
с. Думени: 012
с. Жилівка: 013
с. Зелений Гай: 014
с. Костичани: 015
с. Котелеве: 016
с. Кошуляни: 017
с. Магала: 018
с. Малинівка: 019
с. Мамалига: 020
с. Маршинцi: 021
с. Негринці: 022
с. Несвоя: 023
с. Новоіванківці: 024
с. Остриця: 026
с. Подвiрне: 027
с. Припруття: 028
с. Прут: 029
с. Рiдкiвцi: 030
с. Ревківці: 031
с. Рингач: 032
с. Рокитне: 033
с. Слобода: 034
с. Стальнiвцi: 035
с. Строїнці: 036
с. Тарасiвцi: 037
с. Топорiвцi: 038
с. Форосна: 039
с. Черленiвка: 040
с. Чорнiвка: 041
с. Шишківці: 042
с. Щербинцi: 043
