смт. Кельменцi: 700
с. Iванiвцi: 001
с. Бабин: 002
с. Бернове: 003
с. Браїлівка: 004
с. Бузовиця: 005
с. Бурдюг: 006
с. Вартикiвцi: 007
с. Вовчинець: 008
с. Вороновиця: 009
с. Грушiвцi: 010
с. Днiстрiвка: 011
с. Зелена: 012
с. Козиряни: 014
с. Комарiв: 015
с. Коновка: 016
с. Кроква: 017
с. Лiвинцi: 018
с. Ленкiвцi: 019
с. Лукачiвка: 020
с. Майорка: 021
с. Макарівка: 022
с. Михайлiвка: 023
с. Мошанець: 024
с. Нагоряни: 025
с. Нелипiвцi: 026
с. Новоселиця: 027
с. Оселiвка: 028
с. Перкiвцi: 029
с. Подвiр’ївка: 030
с. Путрине: 031
с. Росошани: 032
с. Слобiдка: 033
с. Старі Іванівці: 034
