м. Герца: 700
с. Байраки: 001
с. Банчени: 002
с. Букiвка: 003
с. Велика Буда: 004
с. Великосілля: 005
с. Годинiвка: 007
с. Горбова: 008
с. Дяківці: 009
с. Круп’янське: 010
с. Куликiвка: 011
с. Луковиця: 012
с. Лунка: 013
с. Мала Буда: 014
с. Маморниця: 015
с. Могилівка: 016
с. Молниця: 017
с. Остриця: 018
с. Петрашiвка: 019
с. Підвальне: 020
с. Радгоспівка: 021
с. Тернавка: 022
с. Хряцька: 023
с. Цурень: 024
