смт. Варва: 700
с. Антонiвка: 001
с. Берізка: 002
с. Богдани: 003
с. Боханів: 004
с. Брагинцi: 005
с. Булавівщина: 006
с. Воскресенське: 008
с. Гнiдинцi: 009
с. Григорівщина: 010
с. Дащенки: 011
с. Журавка: 012
с. Калиновиця: 013
с. Кулишівка: 014
с. Кухарка: 015
с. Леляки: 016
с. Макiївка: 017
с. Макушиха: 018
с. Мармизiвка: 019
с. Мудре: 020
с. Озеряни: 021
с. Остапiвка: 022
с. Рубанів: 023
с. Саверське: 024
с. Свiтличне: 025
с. Сіриків: 026
с. Сіряківщина: 027
с. Тонка: 028
с. Хортиця: 029
с. Ященків: 030
