с. Ярова Білещина: 100
с. Світанкове : 101
м. Прилуки: 700
с. Iвкiвцi: 001
с. Бiлорiчиця: 002
с. Бiлошапки: 003
с. Бажанівка: 004
с. Білещина: 005
с. Богданiвка: 006
с. Боротьба: 007
с. Боршна: 008
с. Бубнiвщина: 009
с. Валки: 010
с. Велика Дiвиця: 011
с. Високе: 012
с. Володимирівка: 013
с. Світанкове: 014
с. Глинщина: 015
с. Голубівка: 016
с. Густиня: 017
с. Даньківка: 018
с. Дідівці: 019
с. Дубовий Гай: 020
с. Єгорівка: 021
с. Жовтневе: 022
с. Заїзд: 023
с. Замостя: 024
с. Запереводське: 025
с. Зарудка: 026
с. Заудаївське: 027
с. Заудайка: 028
с. Знам’янка: 029
с. Канiвщина: 030
с. Капустинці: 031
с. Клеці: 032
с. Ковтунівка: 033
с. Козин: 034
с. Колісники: 035
с. Комуна: 036
с. Красляни: 037
с. Кроти: 038
с. Крутоярівка: 039
с. Лiсовi Сорочинцi: 040
смт. Ладан: 041
с. Левки: 042
смт. Линовиця: 043
с. Лиски: 044
с. Лутайки: 045
с. Мазки: 046
смт. Мала Дiвиця: 047
с. Малкiвка: 048
с. Манжосівка: 049
с. Маціївка: 050
с. Миколаївка: 051
с. Мільки: 052
с. Мокляки: 053
с. Мохнівка: 054
с. Нетягівщина: 055
с. Нетяжине: 056
с. Нова Гребля: 057
с. Нова Тернавщина: 058
с. Новий Лад: 059
с. Обичiв: 060
с. Оникіївка: 061
с. Онищенків: 062
с. Охиньки: 063
с. Переволочна: 064
с. Перше Травня: 065
с. Петрiвка: 066
с. Петрівське: 067
с. Пирогівці: 068
с. Піддубівка: 069
с. Погреби: 070
с. Подище: 071
с. Покровка: 072
с. Полова: 073
с. Пологи: 074
с. Полонки: 075
с. Приозерне: 077
с. Пролетарське: 078
с. Пручаї: 079
с. Радьківка: 080
с. Рибці: 081
с. Рудiвка: 082
с. Ряшки: 083
с. Сергiївка: 084
с. Смош: 085
с. Стасівщина: 086
с. Стрільники: 087
с. Сухоліски: 088
с. Сухополова: 089
с. Сухоставець: 090
с. Сухоярівка: 091
с. Тарасівка: 092
с. Товкачiвка: 093
с. Тополя: 094
с. Турківка: 095
с. Удайцi: 096
с. Шевченка: 097
с. Яблунiвка: 098
с. Яблунівське: 099
