м. Нiжин: 700
с. Бакланове: 001
с. Безуглiвка: 002
с. Березанка: 003
с. Бідин: 004
с. Бобрик: 005
с. Богданівка: 006
с. Буркiвка: 007
с. Вiкторiвка: 008
с. Валентіїв: 009
с. Велика Дорога: 010
с. Велика Кошелiвка: 011
с. Вертiївка: 012
с. Галиця: 013
с. Гармащина: 014
с. Григорівка: 015
с. Григоро-Iванiвка: 016
с. Данине: 017
с. Діброва: 018
с. Довге: 019
с. Дуболугiвка: 020
с. Заньки: 021
с. Зруб: 022
с. Каблуки: 023
с. Калинівка: 024
с. Кардаші: 025
с. Ковтунівка: 026
с. Колiсники: 027
с. Кравчиха: 028
с. Кропивне: 029
с. Крути: 030
с. Кукшин: 031
с. Кунашiвка: 032
с. Курилівка: 033
с. Леонідівка: 034
с. Липiв Рiг: 035
с. Лісове: 036
смт. Лосинiвка: 037
с. Лустівка: 038
с. Мала Кошелiвка: 039
с. Мединщина: 040
с. Мирне: 041
с. Наумівське: 043
с. Низи: 044
с. Паливода: 045
с. Пашківка: 046
с. Перебудова: 047
с. Перемога: 048
с. Переходівка: 049
с. Переяслiвка: 050
с. Погребець: 051
с. Поляна: 052
с. Почечине: 053
с. Радгоспне: 054
с. Садове: 055
с. Сальне: 056
с. Свiтанок: 057
с. Синдаревське: 058
с. Стодоли: 059
с. Талалаївка: 060
с. Терешкiвка: 061
с. Титівка: 062
с. Хвилівка: 063
с. Холявки: 064
с. Хомине: 065
с. Хомівка: 066
с. Червоний Колодязь: 067
с. Червоний Пахар: 068
с. Червоний Шлях: 069
с. Черняхiвка: 070
с. Шатура: 071
с. Шнякiвка: 072
с. Юність: 073
с. Яхнівка: 074
